\relax 
\providecommand\hyper@newdestlabel[2]{}
\providecommand\HyperFirstAtBeginDocument{\AtBeginDocument}
\HyperFirstAtBeginDocument{\ifx\hyper@anchor\@undefined
\global\let\oldcontentsline\contentsline
\gdef\contentsline#1#2#3#4{\oldcontentsline{#1}{#2}{#3}}
\global\let\oldnewlabel\newlabel
\gdef\newlabel#1#2{\newlabelxx{#1}#2}
\gdef\newlabelxx#1#2#3#4#5#6{\oldnewlabel{#1}{{#2}{#3}}}
\AtEndDocument{\ifx\hyper@anchor\@undefined
\let\contentsline\oldcontentsline
\let\newlabel\oldnewlabel
\fi}
\fi}
\global\let\hyper@last\relax 
\gdef\HyperFirstAtBeginDocument#1{#1}
\providecommand\HyField@AuxAddToFields[1]{}
\providecommand\HyField@AuxAddToCoFields[2]{}
\bibstyle{biblatex}
\bibdata{doc-blx,doc1}
\citation{biblatex-control}
\@writefile{toc}{\boolfalse {citerequest}\boolfalse {citetracker}\boolfalse {pagetracker}\boolfalse {backtracker}\relax }
\@writefile{lof}{\boolfalse {citerequest}\boolfalse {citetracker}\boolfalse {pagetracker}\boolfalse {backtracker}\relax }
\@writefile{lot}{\boolfalse {citerequest}\boolfalse {citetracker}\boolfalse {pagetracker}\boolfalse {backtracker}\relax }
\newlabel{pic:fit_logo}{{}{1}{}{Doc-Start}{}}
\citation{Stat2015}
\citation{HzsFinance}
\citation{HzsInfo}
\citation{HzsRozdeleni}
\citation{PokrytiOlomouc}
\citation{HzsRozdeleni}
\@writefile{toc}{\defcounter {refsection}{0}\relax }\@writefile{toc}{\contentsline {section}{\numberline {1}\IeC {\'U}vod}{2}{section.1}}
\@writefile{toc}{\defcounter {refsection}{0}\relax }\@writefile{toc}{\contentsline {subsection}{\numberline {1.1}Kdo se na pr\IeC {\'a}ci pod\IeC {\'\i }lel}{2}{subsection.1.1}}
\@writefile{toc}{\defcounter {refsection}{0}\relax }\@writefile{toc}{\contentsline {subsection}{\numberline {1.2}V jak\IeC {\'e}m prost\IeC {\v r}ed\IeC {\'\i }}{2}{subsection.1.2}}
\@writefile{toc}{\defcounter {refsection}{0}\relax }\@writefile{toc}{\contentsline {section}{\numberline {2}Rozbor t\IeC {\'e}matu a pou\IeC {\v z}it\IeC {\'y}ch metod/technologi\IeC {\'\i }}{2}{section.2}}
\citation{HzsRozdeleni}
\citation{HzsRozdeleni}
\citation{HzsRychlost}
\citation{HzsZakon}
\citation{HzsInfo}
\citation{HzsFinance}
\citation{HzsInfo}
\citation{Stat2015}
\citation{WikiOlomouc}
\citation{SimlibHome}
\@writefile{toc}{\defcounter {refsection}{0}\relax }\@writefile{toc}{\contentsline {subsection}{\numberline {2.1}Popis pou\IeC {\v z}it\IeC {\'y}ch technologi\IeC {\'\i }}{3}{subsection.2.1}}
\citation{PozarModel}
\citation{HzsInfo}
\citation{Stat2015}
\@writefile{toc}{\defcounter {refsection}{0}\relax }\@writefile{toc}{\contentsline {section}{\numberline {3}Koncepce - model\IeC {\'a}\IeC {\v r}sk\IeC {\'a} t\IeC {\'e}mata}{4}{section.3}}
\citation{Stat2015}
\@writefile{toc}{\defcounter {refsection}{0}\relax }\@writefile{toc}{\contentsline {subsection}{\numberline {3.1}Konceptu\IeC {\'a}ln\IeC {\'\i } model}{5}{subsection.3.1}}
\@writefile{lof}{\defcounter {refsection}{0}\relax }\@writefile{lof}{\contentsline {figure}{\numberline {1}{\ignorespaces Model cesty po\IeC {\v z}\IeC {\'a}rn\IeC {\'\i }ho auta.}}{5}{figure.1}}
\newlabel{fig:petri1}{{1}{5}{Model cesty požárního auta}{figure.1}{}}
\@writefile{lof}{\defcounter {refsection}{0}\relax }\@writefile{lof}{\contentsline {figure}{\numberline {2}{\ignorespaces Model hasen\IeC {\'\i } po\IeC {\v z}\IeC {\'a}ru.}}{6}{figure.2}}
\newlabel{fig:petri2}{{2}{6}{Model hasení požáru}{figure.2}{}}
\@writefile{lof}{\defcounter {refsection}{0}\relax }\@writefile{lof}{\contentsline {figure}{\numberline {3}{\ignorespaces Model vzniku po\IeC {\v z}\IeC {\'a}r\IeC {\r u}.}}{6}{figure.3}}
\newlabel{fig:petri3}{{3}{6}{Model vzniku požárů}{figure.3}{}}
\@writefile{toc}{\defcounter {refsection}{0}\relax }\@writefile{toc}{\contentsline {section}{\numberline {4}Koncepce - implementa\IeC {\v c}n\IeC {\'\i } t\IeC {\'e}mata}{6}{section.4}}
\citation{PokrytiOlomouc}
\citation{HzsRozdeleni}
\citation{HzsRozdeleni}
\citation{Stat2015}
\@writefile{toc}{\defcounter {refsection}{0}\relax }\@writefile{toc}{\contentsline {section}{\numberline {5}Architektura simula\IeC {\v c}n\IeC {\'\i }ho modelu/simul\IeC {\'a}toru}{7}{section.5}}
\@writefile{toc}{\defcounter {refsection}{0}\relax }\@writefile{toc}{\contentsline {section}{\numberline {6}Podstata simula\IeC {\v c}n\IeC {\'\i }ch experiment\IeC {\r u} a jejich pr\IeC {\r u}b\IeC {\v e}h}{7}{section.6}}
\@writefile{toc}{\defcounter {refsection}{0}\relax }\@writefile{toc}{\contentsline {subsection}{\numberline {6.1}Postup experimentov\IeC {\'a}n\IeC {\'\i }}{8}{subsection.6.1}}
\@writefile{toc}{\defcounter {refsection}{0}\relax }\@writefile{toc}{\contentsline {subsection}{\numberline {6.2}Dokumentace jednotliv\IeC {\'y}ch experiment\IeC {\r u}}{8}{subsection.6.2}}
\@writefile{lof}{\defcounter {refsection}{0}\relax }\@writefile{lof}{\contentsline {figure}{\numberline {4}{\ignorespaces Pr\IeC {\r u}m\IeC {\v e}rn\IeC {\'y} \IeC {\v c}as p\IeC {\v r}\IeC {\'\i }jezd\IeC {\r u} pro celou mapu, zelen\IeC {\'y} \IeC {\v c}tverec ozna\IeC {\v c}uje pozici JPO.}}{10}{figure.4}}
\newlabel{fig:map1}{{4}{10}{Průměrný čas příjezdů pro celou mapu, zelený čtverec označuje pozici JPO}{figure.4}{}}
\@writefile{lof}{\defcounter {refsection}{0}\relax }\@writefile{lof}{\contentsline {figure}{\numberline {5}{\ignorespaces Pr\IeC {\r u}m\IeC {\v e}rn\IeC {\'y} \IeC {\v c}as p\IeC {\v r}\IeC {\'\i }jezd\IeC {\r u} pro celou mapu, zelen\IeC {\'e} \IeC {\v c}tverce ozna\IeC {\v c}uj\IeC {\'\i } pozice JPO.}}{11}{figure.5}}
\newlabel{fig:map2}{{5}{11}{Průměrný čas příjezdů pro celou mapu, zelené čtverce označují pozice JPO}{figure.5}{}}
\@writefile{lof}{\defcounter {refsection}{0}\relax }\@writefile{lof}{\contentsline {figure}{\numberline {6}{\ignorespaces Pr\IeC {\r u}m\IeC {\v e}rn\IeC {\'y} \IeC {\v c}as p\IeC {\v r}\IeC {\'\i }jezd\IeC {\r u} pro celou mapu, zelen\IeC {\'e} \IeC {\v c}tverce ozna\IeC {\v c}uj\IeC {\'\i } pozice JPO.}}{12}{figure.6}}
\newlabel{fig:map3}{{6}{12}{Průměrný čas příjezdů pro celou mapu, zelené čtverce označují pozice JPO}{figure.6}{}}
\@writefile{lof}{\defcounter {refsection}{0}\relax }\@writefile{lof}{\contentsline {figure}{\numberline {7}{\ignorespaces Pr\IeC {\r u}m\IeC {\v e}rn\IeC {\'y} \IeC {\v c}as p\IeC {\v r}\IeC {\'\i }jezd\IeC {\r u} pro celou mapu, zelen\IeC {\'e} \IeC {\v c}tverce ozna\IeC {\v c}uj\IeC {\'\i } pozice JPO.}}{13}{figure.7}}
\newlabel{fig:map4}{{7}{13}{Průměrný čas příjezdů pro celou mapu, zelené čtverce označují pozice JPO}{figure.7}{}}
\@writefile{lof}{\defcounter {refsection}{0}\relax }\@writefile{lof}{\contentsline {figure}{\numberline {8}{\ignorespaces Pr\IeC {\r u}m\IeC {\v e}rn\IeC {\'y} \IeC {\v c}as p\IeC {\v r}\IeC {\'\i }jezd\IeC {\r u} pro celou mapu, zelen\IeC {\'e} \IeC {\v c}tverce ozna\IeC {\v c}uj\IeC {\'\i } pozice JPO.}}{14}{figure.8}}
\newlabel{fig:map5}{{8}{14}{Průměrný čas příjezdů pro celou mapu, zelené čtverce označují pozice JPO}{figure.8}{}}
\@writefile{toc}{\defcounter {refsection}{0}\relax }\@writefile{toc}{\contentsline {subsection}{\numberline {6.3}Z\IeC {\'a}v\IeC {\v e}ry experiment\IeC {\r u}}{14}{subsection.6.3}}
\@writefile{toc}{\defcounter {refsection}{0}\relax }\@writefile{toc}{\contentsline {section}{\numberline {7}Shrnut\IeC {\'\i } simula\IeC {\v c}n\IeC {\'\i }ch experiment\IeC {\r u} a z\IeC {\'a}v\IeC {\v e}r}{15}{section.7}}
